casestudy
…
##  Conflicts  tidyverse_conflicts() 
##  dplyr::filter() masks stats::filter()
##  dplyr::lag()    masks stats::lag()

Purpose

This studies relates two data sets together (breweries and the beer). From the brewery & beer merged data, we look at the bitterness (IBU) and alcohol by volume (ABV) in relation to their brewwery state. We then will look further into the relationship between IBU and ABV and see if there is a correlation.

Question1 This code looks at the breweris data set and counts each row within the data set by the state column and returns a count of how often each state appears. Since each row is a unique brewery this will tell us how many breweries we have in each state in our data set.

This code looks at the breweris data set and counts each row within the data set by the state column and returns a count of how often each state appears. Since each row is a unique brewery this will tell us how many breweries we have in each state in our data set.

count(breweries,breweries$State)

## # A tibble: 51 x 2
##    `breweries$State`     n
##    <fctr>            <int>
##  1 " AK"                 7
##  2 " AL"                 3
##  3 " AR"                 2
##  4 " AZ"                11
##  5 " CA"                39
##  6 " CO"                47
##  7 " CT"                 8
##  8 " DC"                 1
##  9 " DE"                 2
## 10 " FL"                15
## # ... with 41 more rows
…
